<svg class="svg-icon" style="width: 1em; height: 1em;vertical-align: middle;fill: red;overflow: hidden;" viewBox="0 0 1024 1024" version="1.1" xmlns="http://www.w3.org/2000/svg">
  <path d="M133.404444 674.891852l365.131852-352.616296c1.232593-1.137778 2.56-2.085926 3.982222-2.939259 7.205926-4.361481 16.592593-3.508148 22.945185 2.56l365.131852 352.616296c7.68 7.395556 7.774815 19.816296 0 27.306667-7.395556 7.205926-19.342222 6.826667-26.737778-0.379259l-351.762963-339.626667c0 0 0 0-0.094815 0L160.047407 701.819259c-7.395556 7.205926-19.342222 7.49037-26.737778 0.379259C125.62963 694.708148 125.724444 682.287407 133.404444 674.891852z" />
</svg>
